%YAML 1.1
%TAG !u! tag:unity3d.com,2011:
--- !u!114 &11400000
MonoBehaviour:
  m_ObjectHideFlags: 0
  m_CorrespondingSourceObject: {fileID: 0}
  m_PrefabInstance: {fileID: 0}
  m_PrefabAsset: {fileID: 0}
  m_GameObject: {fileID: 0}
  m_Enabled: 1
  m_EditorHideFlags: 0
  m_Script: {fileID: 11500000, guid: 3a890d1010351cc409655846cc44cf50, type: 3}
  m_Name: CardData_2
  m_EditorClassIdentifier: 
  Info: blah
  CataclysmTime: 15
  CountMultiplyerBonus: 2
  CountBonus: 0
  DelayBonus: 0.8
  Weight: 10
  ResourceType: 0
  Resources:
  - Count: 10
    ResourceType: 8
  - Count: 10
    ResourceType: 7
