%YAML 1.1
%TAG !u! tag:unity3d.com,2011:
--- !u!74 &7400000
AnimationClip:
  m_ObjectHideFlags: 0
  m_CorrespondingSourceObject: {fileID: 0}
  m_PrefabInstance: {fileID: 0}
  m_PrefabAsset: {fileID: 0}
  m_Name: fire2
  serializedVersion: 6
  m_Legacy: 0
  m_Compressed: 0
  m_UseHighQualityCurve: 1
  m_RotationCurves: []
  m_CompressedRotationCurves: []
  m_EulerCurves: []
  m_PositionCurves: []
  m_ScaleCurves: []
  m_FloatCurves: []
  m_PPtrCurves:
  - curve:
    - time: 0
      value: {fileID: -4532726312495410849, guid: de493f1fa07d4490e83f302469ff8311, type: 3}
    - time: 0.083333336
      value: {fileID: 5057274949129225129, guid: de493f1fa07d4490e83f302469ff8311, type: 3}
    - time: 0.16666667
      value: {fileID: 5553005358285333974, guid: de493f1fa07d4490e83f302469ff8311, type: 3}
    - time: 0.25
      value: {fileID: 5147114614322543148, guid: de493f1fa07d4490e83f302469ff8311, type: 3}
    - time: 0.33333334
      value: {fileID: 6695426415565434846, guid: de493f1fa07d4490e83f302469ff8311, type: 3}
    - time: 0.41666666
      value: {fileID: 5858854907484953024, guid: de493f1fa07d4490e83f302469ff8311, type: 3}
    - time: 0.5
      value: {fileID: 2437342834551993943, guid: de493f1fa07d4490e83f302469ff8311, type: 3}
    - time: 0.5833333
      value: {fileID: 2047521252615567946, guid: de493f1fa07d4490e83f302469ff8311, type: 3}
    - time: 0.6666667
      value: {fileID: 5366442802933828840, guid: de493f1fa07d4490e83f302469ff8311, type: 3}
    - time: 0.75
      value: {fileID: -1659860983014099224, guid: de493f1fa07d4490e83f302469ff8311, type: 3}
    - time: 0.8333333
      value: {fileID: -3356593810811537127, guid: de493f1fa07d4490e83f302469ff8311, type: 3}
    attribute: m_Sprite
    path: 
    classID: 212
    script: {fileID: 0}
  m_SampleRate: 12
  m_WrapMode: 0
  m_Bounds:
    m_Center: {x: 0, y: 0, z: 0}
    m_Extent: {x: 0, y: 0, z: 0}
  m_ClipBindingConstant:
    genericBindings:
    - serializedVersion: 2
      path: 0
      attribute: 0
      script: {fileID: 0}
      typeID: 212
      customType: 23
      isPPtrCurve: 1
    pptrCurveMapping:
    - {fileID: -4532726312495410849, guid: de493f1fa07d4490e83f302469ff8311, type: 3}
    - {fileID: 5057274949129225129, guid: de493f1fa07d4490e83f302469ff8311, type: 3}
    - {fileID: 5553005358285333974, guid: de493f1fa07d4490e83f302469ff8311, type: 3}
    - {fileID: 5147114614322543148, guid: de493f1fa07d4490e83f302469ff8311, type: 3}
    - {fileID: 6695426415565434846, guid: de493f1fa07d4490e83f302469ff8311, type: 3}
    - {fileID: 5858854907484953024, guid: de493f1fa07d4490e83f302469ff8311, type: 3}
    - {fileID: 2437342834551993943, guid: de493f1fa07d4490e83f302469ff8311, type: 3}
    - {fileID: 2047521252615567946, guid: de493f1fa07d4490e83f302469ff8311, type: 3}
    - {fileID: 5366442802933828840, guid: de493f1fa07d4490e83f302469ff8311, type: 3}
    - {fileID: -1659860983014099224, guid: de493f1fa07d4490e83f302469ff8311, type: 3}
    - {fileID: -3356593810811537127, guid: de493f1fa07d4490e83f302469ff8311, type: 3}
  m_AnimationClipSettings:
    serializedVersion: 2
    m_AdditiveReferencePoseClip: {fileID: 0}
    m_AdditiveReferencePoseTime: 0
    m_StartTime: 0
    m_StopTime: 0.9166667
    m_OrientationOffsetY: 0
    m_Level: 0
    m_CycleOffset: 0
    m_HasAdditiveReferencePose: 0
    m_LoopTime: 0
    m_LoopBlend: 0
    m_LoopBlendOrientation: 0
    m_LoopBlendPositionY: 0
    m_LoopBlendPositionXZ: 0
    m_KeepOriginalOrientation: 0
    m_KeepOriginalPositionY: 1
    m_KeepOriginalPositionXZ: 0
    m_HeightFromFeet: 0
    m_Mirror: 0
  m_EditorCurves: []
  m_EulerEditorCurves: []
  m_HasGenericRootTransform: 0
  m_HasMotionFloatCurves: 0
  m_Events: []
